basicRISCV/RTL/gpio_test.vcd
$date
	Thu Dec 25 17:42:08 2025
$end
$version
	Icarus Verilog
$end
$timescale
	1ps
$end
$scope module testbench $end
$var wire 1 ! TXD $end
$var wire 4 " LEDS [3:0] $end
$var reg 1 # RESET $end
$var reg 1 $ RXD $end
$scope module uut $end
$var wire 1 # RESET $end
$var wire 1 $ RXD $end
$var wire 1 % gpio_sel $end
$var wire 1 & uart_valid $end
$var wire 1 ' uart_ready $end
$var wire 1 ( resetn $end
$var wire 1 ) mem_wstrb $end
$var wire 30 * mem_wordaddr [29:0] $end
$var wire 4 + mem_wmask [3:0] $end
$var wire 32 , mem_wdata [31:0] $end
$var wire 1 - mem_rstrb $end
$var wire 32 . mem_rdata [31:0] $end
$var wire 32 / mem_addr [31:0] $end
$var wire 1 0 isRAM $end
$var wire 1 1 isIO $end
$var wire 32 2 gpio_rdata [31:0] $end
$var wire 1 3 clk_int $end
$var wire 1 4 clk $end
$var wire 1 ! TXD $end
$var wire 32 5 RAM_rdata [31:0] $end
$var wire 4 6 LEDS [3:0] $end
$var wire 32 7 IO_rdata [31:0] $end
$var parameter 32 8 IO_GPIO_bit $end
$var parameter 32 9 IO_UART_CNTL_bit $end
$var parameter 32 : IO_UART_DAT_bit $end
$scope module CPU $end
$var wire 1 ; LOAD_sign $end
$var wire 32 < aluIn1 [31:0] $end
$var wire 32 = mem_rdata [31:0] $end
$var wire 1 - mem_rstrb $end
$var wire 4 > mem_wmask [3:0] $end
$var wire 1 ? writeBackEn $end
$var wire 32 @ writeBackData [31:0] $end
$var wire 32 A shifter_in [31:0] $end
$var wire 32 B shifter [31:0] $end
$var wire 5 C shamt [4:0] $end
$var wire 5 D rs2Id [4:0] $end
$var wire 5 E rs1Id [4:0] $end
$var wire 1 ( resetn $end
$var wire 5 F rdId [4:0] $end
$var wire 32 G nextPC [31:0] $end
$var wire 32 H mem_wdata [31:0] $end
$var wire 1 I mem_halfwordAccess $end
$var wire 1 J mem_byteAccess $end
$var wire 32 K mem_addr [31:0] $end
$var wire 32 L loadstore_addr [31:0] $end
$var wire 32 M leftshift [31:0] $end
$var wire 1 N isStore $end
$var wire 1 O isSYSTEM $end
$var wire 1 P isLoad $end
$var wire 1 Q isLUI $end
$var wire 1 R isJALR $end
$var wire 1 S isJAL $end
$var wire 1 T isBranch $end
$var wire 1 U isAUIPC $end
$var wire 1 V isALUreg $end
$var wire 1 W isALUimm $end
$var wire 7 X funct7 [6:0] $end
$var wire 3 Y funct3 [2:0] $end
$var wire 1 4 clk $end
$var wire 32 Z aluPlus [31:0] $end
$var wire 33 [ aluMinus [32:0] $end
$var wire 32 \ aluIn2 [31:0] $end
$var wire 32 ] Uimm [31:0] $end
$var wire 32 ^ Simm [31:0] $end
$var wire 4 _ STORE_wmask [3:0] $end
$var wire 32 ` PCplusImm [31:0] $end
$var wire 32 a PCplus4 [31:0] $end
$var wire 1 b LTU $end
$var wire 1 c LT $end
$var wire 16 d LOAD_halfword [15:0] $end
$var wire 32 e LOAD_data [31:0] $end
$var wire 8 f LOAD_byte [7:0] $end
$var wire 32 g Jimm [31:0] $end
$var wire 32 h Iimm [31:0] $end
$var wire 1 i EQ $end
$var wire 32 j Bimm [31:0] $end
$var parameter 32 k EXECUTE $end
$var parameter 32 l FETCH_INSTR $end
$var parameter 32 m FETCH_REGS $end
$var parameter 32 n LOAD $end
$var parameter 32 o STORE $end
$var parameter 32 p WAIT_DATA $end
$var parameter 32 q WAIT_INSTR $end
$var reg 32 r PC [31:0] $end
$var reg 32 s aluOut [31:0] $end
$var reg 32 t instr [31:0] $end
$var reg 32 u rs1 [31:0] $end
$var reg 32 v rs2 [31:0] $end
$var reg 3 w state [2:0] $end
$var reg 1 x takeBranch $end
$var integer 32 y i [31:0] $end
$scope function flip32 $end
$var reg 32 z x [31:0] $end
$upscope $end
$upscope $end
$scope module CW $end
$var wire 1 # RESET $end
$var wire 1 ( resetn $end
$var wire 1 4 clk $end
$var wire 1 3 CLK $end
$var parameter 32 { SLOW $end
$scope begin genblk1 $end
$var reg 3 | reset_cnt [2:0] $end
$upscope $end
$upscope $end
$scope module MyGPIO $end
$var wire 1 4 clk $end
$var wire 1 % i_sel $end
$var wire 32 } i_wdata [31:0] $end
$var wire 1 ) i_we $end
$var wire 32 ~ o_rdata [31:0] $end
$var wire 1 ( resetn $end
$var wire 4 !" o_gpio [3:0] $end
$var reg 32 "" storage [31:0] $end
$upscope $end
$scope module RAM $end
$var wire 1 4 clk $end
$var wire 32 #" mem_addr [31:0] $end
$var wire 1 $" mem_rstrb $end
$var wire 32 %" mem_wdata [31:0] $end
$var wire 4 &" mem_wmask [3:0] $end
$var wire 30 '" word_addr [29:0] $end
$var reg 32 (" mem_rdata [31:0] $end
$upscope $end
$scope module UART $end
$var wire 1 4 i_clk $end
$var wire 8 )" i_data [7:0] $end
$var wire 1 *" i_rst $end
$var wire 1 & i_valid $end
$var wire 1 ! o_uart_tx $end
$var parameter 64 +" START_VALUE $end
$var parameter 32 ," WIDTH $end
$var parameter 32 -" baud_rate $end
$var parameter 64 ." clk_freq_hz $end
$var reg 12 /" cnt [11:0] $end
$var reg 10 0" data [9:0] $end
$var reg 1 ' o_ready $end
$upscope $end
$scope module hfosc $end
$var wire 1 1" CLKHFEN $end
$var wire 1 2" CLKHFPU $end
$var parameter 32 3" CLKHF_DIV $end
$var reg 1 3 CLKHF $end
$upscope $end
$upscope $end
$upscope $end
$enddefinitions $end
$comment Show the parameter values. $end
$dumpall
b110000011000100011000100110000 3"
b101101110001101100000000 ."
b10010110000000 -"
b1011 ,"
b10011100010 +"
b0 {
b1 q
b101 p
b110 o
b100 n
b10 m
b0 l
b11 k
b1 :
b10 9
b0 8
$end
#0
$dumpvars
12"
11"
bx 0"
bx /"
1*"
bx )"
bx ("
b0 '"
b0 &"
bx %"
1$"
b0 #"
bx ""
bx !"
bx ~
bx }
b0 |
bx z
b100000 y
xx
b0 w
bx v
bx u
bx t
bx s
b0 r
bx0 j
xi
bx h
bx0 g
bx f
bx e
bx d
xc
xb
b100 a
bx `
bx _
bx ^
bx000000000000 ]
bx \
bx [
bx Z
bx Y
bx X
xW
xV
xU
xT
xS
xR
xQ
xP
xO
xN
bx M
bx L
b0 K
xJ
xI
bx H
bx G
bx F
bx E
bx D
bx C
bx B
bx A
bx @
0?
b0 >
bx =
bx <
x;
b0 7
bx 6
bx 5
04
03
bx 2
01
10
b0 /
bx .
1-
bx ,
b0 +
b0 *
0)
0(
x'
0&
0%
1$
0#
bx "
x!
$end
#41666
bx0xxx e
bx0xxx f
b0xxxxx0xxx d
b10000000000000110110111 .
b10000000000000110110111 =
1!
b0 "
b0 6
b0 !"
b10000000000000110110111 5
b10000000000000110110111 ("
1'
b0 0"
b0 /"
b0 2
b0 ~
b0 ""
b1 |
14
13
#83332
04
03
#100000
b0 |
1#
#124998
14
13
#166664
04
03
#200000
0#
#208330
b1 |
14
13
#249996
04
03
#291662
b10 |
14
13
#333328
04
03
#374994
b11 |
14
13
#416660
04
03
#458326
b100 |
14
13
#499992
04
03
#541658
b101 |
14
13
#583324
04
03
#624990
b110 |
14
13
#666656
04
03
#708322
0*"
1(
b111 |
14
13
#749988
04
03
#791654
0$"
0-
b10011100010 /"
b1 w
14
13
#833320
04
03
#874986
bx0000 M
b0xxxxxxxxxxxxxxxxxxxxxxxxxxxx z
b0xxxxxxxxxxxxxxxxxxxxxxxxxxxx B
b0x0000000000000xx0xx0xxx .
b0x0000000000000xx0xx0xxx =
x%
bx '"
x0
x1
bx *
b100 \
b10000000000000000000000 @
b100 G
bx /
bx K
bx #"
1J
0I
b100 C
b10000000000000000000000 `
0V
0W
0T
0R
0S
0U
1Q
0P
0N
0O
b10000000000000000000000 ]
b100 h
b11 ^
b100000000010 j
b100 g
b0 E
b100 D
b11 F
b0 Y
b0 X
b10 w
b10000000000000110110111 t
14
13
#916652
04
03
#958318
1;
b11111111111111111111111110110111 e
b10110111 f
1?
b1 _
b10000000000000110110111 .
b10000000000000110110111 =
0%
1c
b0 M
b0 )"
b110110111 d
b1 '"
10
01
b1 *
0x
b0 B
b0 ,
b0 H
b0 }
b0 %"
b100 /
b100 K
b100 #"
1b
0i
b100 s
b0 z
b0 A
b11 w
b0 v
b100 L
b100 Z
b111111111111111111111111111111100 [
b0 <
b0 u
14
13
#999984
04
03
#1041650
0?
1$"
b1000 G
1-
b0 w
b10000000000000000000100 `
b1000 a
b100 r
14
13
#1083316
04
03
#1124982
0;
b110111 e
b110111 f
b10000100110111 d
0$"
b10000100110111 .
b10000100110111 =
0-
b10000100110111 5
b10000100110111 ("
b1 w
14
13
#1166648
04
03
#1208314
0c
0b
1i
b0 '"
b0 *
b10000000000100 `
b10000000000000 @
b0 [
b10000100110111 e
b1111 _
b0 /
b0 K
b0 #"
b0 Z
b0 \
b0 L
0J
b0 C
b0 s
b10000000000000 ]
b0 h
b10 ^
b10 j
b10000000000000 g
b0 D
b10 F
b10 Y
b10 w
b10000100110111 t
14
13
#1249980
04
03
#1291646
1?
b11 w
14
13
#1333312
04
03
#1374978
0?
b10 '"
b10 *
b1000 /
b1000 K
b1000 #"
1$"
b1100 G
1-
b0 w
b10000000001000 `
b1100 a
b1000 r
14
13
#1416644
04
03
#1458310
b10011 f
b100010011 d
b10000000000000010000000100010011 e
0$"
b10000000000000010000000100010011 .
b10000000000000010000000100010011 =
0-
b10000000000000010000000100010011 5
b10000000000000010000000100010011 ("
b1 w
14
13
#1499976
04
03
#1541642
b0 f
b0 d
b0 .
b0 =
1b
0i
b111111111111111111111000000000 '"
00
11
b111111111111111111111000000000 *
b10000000000000010000000000001000 `
b11111111111111111111100000000000 @
b100000000000000000000100000000000 [
b11111111111111111111100000000000 s
b0 e
b1 _
b11111111111111111111100000000000 /
b11111111111111111111100000000000 K
b11111111111111111111100000000000 #"
b11111111111111111111100000000000 Z
b11111111111111111111100000000000 \
b11111111111111111111100000000000 L
1J
0x
1W
0Q
b10000000000000010000000000000000 ]
b11111111111111111111100000000000 h
b11111111111111111111100000000010 ^
b11111111111111111111000000000010 j
b11111111111100010000000000000000 g
b10 E
b0 Y
b1000000 X
b10 w
b10000000000000010000000100010011 t
14
13
#1583308
04
03
#1624974
b10011 e
b10011 f
b100010011 d
b1100000000000 @
1?
b10000000000000010000000100010011 .
b10000000000000010000000100010011 =
b1000000000000000000 M
b11000000000 '"
10
01
b11000000000 *
b10000000000000 B
b1100000000000 /
b1100000000000 K
b1100000000000 #"
b1100000000000 s
b10000000000000 z
b10000000000000 A
b11 w
b1100000000000 L
b1100000000000 Z
b100000000000000000010100000000000 [
b10000000000000 <
b10000000000000 u
14
13
#1666640
04
03
#1708306
0?
b11 '"
b11 *
b1100 /
b1100 K
b1100 #"
1$"
b10000 G
1-
b0 w
b10000000000000010000000000001100 `
b10000 a
b1100 r
14
13
#1749972
04
03
#1791638
1;
b11111111111111111111111111101111 e
b11101111 f
b11101111 d
0$"
b10010000000000000011101111 .
b10010000000000000011101111 =
0-
b10010000000000000011101111 5
b10010000000000000011101111 ("
b1 w
14
13
#1833304
04
03
#1874970
b10000000000000000000000 M
b1000000000 z
b1000000000 B
0b
b100000001001 '"
b100000001001 *
b110000 G
b10000 @
b1111111011100 [
b10000000100100 s
b10000000100100 /
b10000000100100 K
b10000000100100 #"
b10000000100100 Z
b100100 \
b10000000100100 L
b100 C
b110000 `
0W
1S
b10010000000000000000000000 ]
b100100 h
b100001 ^
b100000100000 j
b100100 g
b0 E
b100 D
b1 F
b1 X
b10 w
b10010000000000000011101111 t
14
13
#1916636
04
03
#1958302
1?
b0 M
b1001 '"
b1001 *
1c
b0 B
b100100 /
b100100 K
b100100 #"
1b
b100100 s
b0 z
b0 A
b11 w
b100100 L
b100100 Z
b111111111111111111111111111011100 [
b0 <
b0 u
14
13
#1999968
04
03
#2041634
0?
b1100 '"
b1100 *
b110000 /
b110000 K
b110000 #"
1$"
1-
b1010100 G
b110100 @
b0 w
b1010100 `
b110100 a
b110000 r
14
13
#2083300
04
03
#2124966
0;
b10011 e
b10011 f
b100010011 d
0$"
b11111110000000010000000100010011 .
b11111110000000010000000100010011 =
0-
b11111110000000010000000100010011 5
b11111110000000010000000100010011 ("
b1 w
14
13
#2166632
04
03
#2208298
b0 e
b0 f
b0 d
0c
b0 .
b0 =
b111111111111111111111111111000 '"
00
11
b111111111111111111111111111000 *
b11111111111111111111111111100000 @
b100000000000000000000000000100000 [
b11111111111111111111111111100000 s
b110100 G
b11111111111111111111111111100000 /
b11111111111111111111111111100000 K
b11111111111111111111111111100000 #"
b11111111111111111111111111100000 Z
b11111111111111111111111111100000 \
b11111111111111111111111111100000 L
b0 C
b11111110000000010000000000110000 `
1W
0S
b11111110000000010000000000000000 ]
b11111111111111111111111111100000 h
b11111111111111111111111111100010 ^
b11111111111111111111011111100010 j
b11111111111100010000011111100000 g
b10 E
b0 D
b10 F
b1111111 X
b10 w
b11111110000000010000000100010011 t
14
13
#2249964
04
03
#2291630
b10011 e
b10011 f
b100010011 d
b1011111100000 @
1?
b11111110000000010000000100010011 .
b11111110000000010000000100010011 =
b110000000000000000000 M
b10111111000 '"
10
01
b10111111000 *
b1100000000000 B
b1011111100000 /
b1011111100000 K
b1011111100000 #"
b1011111100000 s
b1100000000000 z
b1100000000000 A
b11 w
b1011111100000 L
b1011111100000 Z
b100000000000000000001100000100000 [
b1100000000000 <
b1100000000000 u
14
13
#2333296
04
03
#2374962
0?
b1101 '"
b1101 *
b110100 /
b110100 K
b110100 #"
1$"
b111000 G
1-
b0 w
b11111110000000010000000000110100 `
b111000 a
b110100 r
14
13
#2416628
04
03
#2458294
b100011 e
b100011 f
b10111000100011 d
0$"
b100010010111000100011 .
b100010010111000100011 =
0-
b100010010111000100011 5
b100010010111000100011 ("
b1 w
14
13
#2499960
04
03
#2541626
b0 @
b1100000000000000000000 M
b110000000000 z
b110000000000 B
0b
b11000000111 '"
b11000000111 *
b1011111111111 [
b100010010111000100011 e
b1111 _
b1010000 `
b1100000011100 /
b1100000011100 K
b1100000011100 #"
b1100000000001 Z
b1 \
b1100000011100 L
0J
b1 C
b0 s
0W
1N
b100010010000000000000 ]
b1 h
b11100 ^
b11100 j
b10010100000000000 g
b1 D
b11100 F
b10 Y
b0 X
b10 w
b100010010111000100011 t
14
13
#2583292
04
03
#2624958
b1111110100000000000000000000 M
b10000 )"
b10111111111 '"
b10111111111 *
b101111110000 B
b10000 ,
b10000 H
b10000 }
b10000 %"
b1011111111100 /
b1011111111100 K
b1011111111100 #"
b101111110000 z
b1011111100000 A
b11 w
b10000 v
b1011111111100 L
b1011111100001 Z
b1011111011111 [
b1011111100000 <
b1011111100000 u
14
13
#2666624
04
03
#2708290
b1111 &"
b111100 G
1)
b1111 +
b1111 >
b110 w
b1010100 `
b111100 a
b111000 r
14
13
#2749956
04
03
#2791622
b1110 '"
b1110 *
b111000 /
b111000 K
b111000 #"
1$"
b0 &"
1-
0)
b0 +
b0 >
b0 w
14
13
#2833288
04
03
#2874954
b10110000100011 d
b100000010010110000100011 e
0$"
0-
b100000010010110000100011 .
b100000010010110000100011 =
b1 w
b100000010010110000100011 5
b100000010010110000100011 ("
14
13
#2916620
04
03
#2958286
b11101000000000000000000000000000 M
b10111 z
b10111 B
b10111111110 '"
b10111111110 *
b1011111011000 [
b1010000 `
b1011111111000 /
b1011111111000 K
b1011111111000 #"
b1011111101000 Z
b1000 \
b1011111111000 L
b1000 C
b100000010010000000000000 ]
b1000 h
b11000 ^
b11000 j
b10010000000001000 g
b1000 D
b11000 F
b10 w
b100000010010110000100011 t
14
13
#2999952
04
03
#3041618
b0 )"
b0 ,
b0 H
b0 }
b0 %"
b11 w
b0 v
14
13
#3083284
04
03
#3124950
b1111 &"
b1000000 G
1)
b1111 +
b1111 >
b110 w
b1010100 `
b1000000 a
b111100 r
14
13
#3166616
04
03
#3208282
b1111 '"
b1111 *
b111100 /
b111100 K
b111100 #"
1$"
b0 &"
1-
0)
b0 +
b0 >
b0 w
14
13
#3249948
04
03
#3291614
b10011 f
b10000010011 d
b10000000010000010000010011 e
0$"
b10000000010000010000010011 .
b10000000010000010000010011 =
0-
b10000000010000010000010011 5
b10000000010000010000010011 ("
b1 w
14
13
#3333280
04
03
#3374946
b1100000000000 @
b111111010000000000000000000 M
b1011111100000 z
b1011111100000 B
b11000000000 '"
b11000000000 *
b1011111000000 [
b10011 e
b1 _
b10000000010000000000111100 `
b1100000000000 /
b1100000000000 K
b1100000000000 #"
b1100000000000 Z
b100000 \
b1100000000000 L
1J
b0 C
b1100000000000 s
1W
0N
b10000000010000000000000000 ]
b100000 h
b101000 ^
b101000 j
b10000000000100000 g
b0 D
b1000 F
b0 Y
b1 X
b10 w
b10000000010000010000010011 t
14
13
#3416612
04
03
#3458278
1?
b11 w
14
13
#3499944
04
03
#3541610
0?
b10000 '"
b10000 *
b1000000 /
b1000000 K
b1000000 #"
1$"
b1000100 G
1-
b0 w
b10000000010000000001000000 `
b1000100 a
b1000000 r
14
13
#3583276
04
03
#3624942
b100011 e
b100011 f
b10011000100011 d
0$"
b11111110000001000010011000100011 .
b11111110000001000010011000100011 =
0-
b11111110000001000010011000100011 5
b11111110000001000010011000100011 ("
b1 w
14
13
#3666608
04
03
#3708274
b0 @
1b
b10111110011 '"
b10111110011 *
b100000000000000000001100000000000 [
b11111110000001000010011000100011 e
b1111 _
b11111111111111111111100000101100 `
b1011111001100 /
b1011111001100 K
b1011111001100 #"
b1011111000000 Z
b11111111111111111111111111100000 \
b1011111001100 L
0J
b0 s
0W
1N
b11111110000001000010000000000000 ]
b11111111111111111111111111100000 h
b11111111111111111111111111101100 ^
b11111111111111111111011111101100 j
b11111111111101000010011111100000 g
b1000 E
b1100 F
b10 Y
b1111111 X
b10 w
b11111110000001000010011000100011 t
14
13
#3749940
04
03
#3791606
b110000000000000000000 M
b10111111011 '"
b10111111011 *
b1100000000000 B
b1011111101100 /
b1011111101100 K
b1011111101100 #"
b1100000000000 z
b1100000000000 A
b11 w
b1011111101100 L
b1011111100000 Z
b100000000000000000001100000100000 [
b1100000000000 <
b1100000000000 u
14
13
#3833272
04
03
#3874938
b1111 &"
b1001000 G
1)
b1111 +
b1111 >
b110 w
b11111111111111111111100000110000 `
b1001000 a
b1000100 r
14
13
#3916604
04
03
#3958270
b10001 '"
b10001 *
b1000100 /
b1000100 K
b1000100 #"
1$"
b0 &"
1-
0)
b0 +
b0 >
b0 w
14
13
#3999936
04
03
#4041602
b10010000100011 d
b11111110000001000010010000100011 e
0$"
0-
b11111110000001000010010000100011 .
b11111110000001000010010000100011 =
b1 w
b11111110000001000010010000100011 5
b11111110000001000010010000100011 ("
14
13
#4083268
04
03
#4124934
b10111111010 '"
b10111111010 *
b11111111111111111111100000101100 `
b1011111101000 /
b1011111101000 K
b1011111101000 #"
b1011111101000 L
b11111111111111111111111111101000 ^
b11111111111111111111011111101000 j
b1000 F
b10 w
b11111110000001000010010000100011 t
14
13
#4166600
04
03
#4208266
b11 w
14
13
#4249932
04
03
#4291598
b1111 &"
b1001100 G
1)
b1111 +
b1111 >
b110 w
b11111111111111111111100000110000 `
b1001100 a
b1001000 r
14
13
#4333264
04
03
#4374930
b10010 '"
b10010 *
b1001000 /
b1001000 K
b1001000 #"
1$"
b0 &"
1-
0)
b0 +
b0 >
b0 w
14
13
#4416596
04
03
#4458262
b10110111 f
b11110110111 d
b10000000000011110110111 e
0$"
b10000000000011110110111 .
b10000000000011110110111 =
0-
b10000000000011110110111 5
b10000000000011110110111 ("
b1 w
14
13
#4499928
04
03
#4541594
b1100000000000000000000000 M
b110000000 z
b110000000 B
0b
1;
b11000000001 '"
b11000000001 *
b10000000000000000000000 @
b1011111111100 [
b11111111111111111111111110110111 e
b1 _
b10000000000000001001000 `
b1100000000100 /
b1100000000100 K
b1100000000100 #"
b1100000000100 Z
b100 \
b1100000000100 L
1J
b100 C
b1100000000100 s
1Q
0N
b10000000000000000000000 ]
b100 h
b1111 ^
b100000001110 j
b100 g
b0 E
b100 D
b1111 F
b0 Y
b0 X
b10 w
b10000000000011110110111 t
14
13
#4583260
04
03
#4624926
1?
b0 M
b1 '"
b1 *
1c
b0 B
b100 /
b100 K
b100 #"
1b
b100 s
b0 z
b0 A
b11 w
b100 L
b100 Z
b111111111111111111111111111111100 [
b0 <
b0 u
14
13
#4666592
04
03
#4708258
0?
b10011 '"
b10011 *
b1001100 /
b1001100 K
b1001100 #"
1$"
b1010000 G
1-
b0 w
b10000000000000001001100 `
b1010000 a
b1001100 r
14
13
#4749924
04
03
#4791590
b11111111111111111111111110010011 e
b10010011 f
b1000011110010011 d
0$"
b10001111000011110010011 .
b10001111000011110010011 =
0-
b10001111000011110010011 5
b10001111000011110010011 ("
b1 w
14
13
#4833256
04
03
#4874922
b1 '"
b1 *
b10001111000000001001100 `
b100 @
b100 /
b100 K
b100 #"
1W
0Q
b10001111000000000000000 ]
b1111000000000000100 g
b1111 E
b10 w
b10001111000011110010011 t
14
13
#4916588
04
03
#4958254
0;
b0 e
b0 f
b0 d
b10000000000000000000100 @
1?
b0 .
b0 =
1%
b10000000000000 M
b100000000000000000001 '"
00
11
b100000000000000000001 *
0c
b1000000000000000000 B
b10000000000000000000100 /
b10000000000000000000100 K
b10000000000000000000100 #"
0b
b10000000000000000000100 s
b1000000000000000000 z
b10000000000000000000000 A
b11 w
b10000000000000000000100 L
b10000000000000000000100 Z
b1111111111111111111100 [
b10000000000000000000000 <
b10000000000000000000000 u
14
13
#4999920
04
03
#5041586
1;
b11111111111111111111111110010011 e
b10010011 f
b1000011110010011 d
b10001111000011110010011 .
b10001111000011110010011 =
1$"
0%
0?
b10100 '"
10
01
b10100 *
b1010000 /
b1010000 K
b1010000 #"
b1010100 G
1-
b0 w
b10001111000000001010000 `
b1010100 a
b1010000 r
14
13
#5083252
04
03
#5124918
0;
b11 e
b11 f
b10011100000011 d
0$"
b11111110110001000010011100000011 .
b11111110110001000010011100000011 =
0-
b11111110110001000010011100000011 5
b11111110110001000010011100000011 ("
b1 w
14
13
#5166584
04
03
#5208250
b11111110110001000010011100000011 @
b1000000000000000000000 M
b10000000000 z
b10000000000 B
1b
b11111111111111111011 '"
b11111111111111111011 *
b100000000010000000000000000010100 [
b11111110110001000010011100000011 e
b1111 _
b11111111111111111111100000111110 `
b1111111111111111101100 /
b1111111111111111101100 K
b1111111111111111101100 #"
b1111111111111111101100 Z
b11111111111111111111111111101100 \
b1111111111111111101100 L
0J
b1100 C
b0 s
0W
1P
b11111110110001000010000000000000 ]
b11111111111111111111111111101100 h
b11111111111111111111111111101110 ^
b11111111111111111111011111101110 j
b11111111111101000010011111101100 g
b1000 E
b1100 D
b1110 F
b10 Y
b1111111 X
b10 w
b11111110110001000010011100000011 t
14
13
#5249916
04
03
#5291582
1?
b10000000000000000000000000000000 M
b10111111011 '"
b10111111011 *
b1 B
b1011111101100 /
b1011111101100 K
b1011111101100 #"
b1 z
b1100000000000 A
b11 w
b1011111101100 L
b1011111101100 Z
b100000000000000000001100000010100 [
b1100000000000 <
b1100000000000 u
14
13
#5333248
04
03
#5374914
0?
1$"
b1011000 G
1-
b100 w
b11111111111111111111100001000010 `
b1011000 a
b1010100 r
14
13
#5416580
04
03
#5458246
b0 @
b0 f
b0 d
b0 e
0$"
b0 .
b0 =
1?
0-
b0 5
b0 ("
b101 w
14
13
#5499912
04
03
#5541578
b10101 '"
b10101 *
b1010100 /
b1010100 K
b1010100 #"
1$"
0?
1-
b0 w
14
13
#5583244
04
03
#5624910
b111001111010000000100011 @
1;
b100011 f
b1010000000100011 d
b111001111010000000100011 e
0$"
b111001111010000000100011 .
b111001111010000000100011 =
0-
b111001111010000000100011 5
b111001111010000000100011 ("
b1 w
14
13
#5666576
04
03
#5708242
b0 @
b0 M
b0 z
b0 B
0b
b11000000000 '"
b11000000000 *
b1011111110010 [
b1010100 `
b1100000000000 /
b1100000000000 K
b1100000000000 #"
b1100000001110 Z
b1110 \
b1100000000000 L
b1110 C
0P
1N
b111001111010000000000000 ]
b1110 h
b0 ^
b0 j
b1111010000000001110 g
b1111 E
b1110 D
b0 F
b0 X
b10 w
b111001111010000000100011 t
14
13
#5749908
04
03
#5791574
0;
b0 f
b0 d
b0 e
b0 .
b0 =
1%
b100000000000000000000000 M
b100000000000000000001 '"
00
11
b100000000000000000001 *
b100000000 B
b10000000000000000000100 /
b10000000000000000000100 K
b10000000000000000000100 #"
b100000000 z
b10000000000000000000100 A
b11 w
b10000000000000000000100 L
b10000000000000000010010 Z
b1111111111111111110110 [
b10000000000000000000100 <
b10000000000000000000100 u
14
13
#5833240
04
03
#5874906
b1011100 G
1)
b1111 +
b1111 >
b110 w
b1011000 `
b1011100 a
b1011000 r
14
13
#5916572
04
03
#5958238
1;
b100011 f
b1010000000100011 d
b111001111010000000100011 e
b111001111010000000100011 .
b111001111010000000100011 =
1$"
0%
b10110 '"
10
01
b10110 *
b1011000 /
b1011000 K
b1011000 #"
1-
0)
b0 +
b0 >
b0 w
14
13
#5999904
04
03
#6041570
0;
b10110111 f
b11110110111 d
b10000000000011110110111 e
0$"
0-
b10000000000011110110111 .
b10000000000011110110111 =
b1 w
b10000000000011110110111 5
b10000000000011110110111 ("
14
13
#6083236
04
03
#6124902
b0 f
b0 d
b10000000000000 M
b1000000000000000000 z
b0 .
b0 =
b1000000000000000000 B
0;
b100000000000000000010 '"
00
11
b100000000000000000010 *
b10000000000000000000000 @
b10000000000000000000000 [
b0 e
b1 _
b10000000000000001011000 `
b10000000000000000001000 /
b10000000000000000001000 K
b10000000000000000001000 #"
b10000000000000000001000 Z
b100 \
b10000000000000000001000 L
1J
b100 C
b10000000000000000001000 s
1Q
0N
b10000000000000000000000 ]
b100 h
b1111 ^
b100000001110 j
b100 g
b0 E
b100 D
b1111 F
b0 Y
b10 w
b10000000000011110110111 t
14
13
#6166568
04
03
#6208234
1;
b11111111111111111111111110110111 e
b10110111 f
b11110110111 d
1?
b10000000000011110110111 .
b10000000000011110110111 =
b0 M
b1 '"
10
01
b1 *
1c
b0 B
b100 /
b100 K
b100 #"
1b
b100 s
b0 z
b0 A
b11 w
b100 L
b100 Z
b111111111111111111111111111111100 [
b0 <
b0 u
14
13
#6249900
04
03
#6291566
0?
b10111 '"
b10111 *
b1011100 /
b1011100 K
b1011100 #"
1$"
b1100000 G
1-
b0 w
b10000000000000001011100 `
b1100000 a
b1011100 r
14
13
#6333232
04
03
#6374898
b11111111111111111111111110010011 e
b10010011 f
b1000011110010011 d
0$"
0-
b10001111000011110010011 .
b10001111000011110010011 =
b1 w
b10001111000011110010011 5
b10001111000011110010011 ("
14
13
#6416564
04
03
#6458230
b1 '"
b1 *
b10001111000000001011100 `
b100 @
b100 /
b100 K
b100 #"
1W
0Q
b10001111000000000000000 ]
b1111000000000000100 g
b1111 E
b10 w
b10001111000011110010011 t
14
13
#6499896
04
03
#6541562
0;
b0 e
b0 f
b0 d
b10000000000000000000100 @
1?
b0 .
b0 =
1%
b10000000000000 M
b100000000000000000001 '"
00
11
b100000000000000000001 *
0c
b1000000000000000000 B
b10000000000000000000100 /
b10000000000000000000100 K
b10000000000000000000100 #"
0b
b10000000000000000000100 s
b1000000000000000000 z
b10000000000000000000000 A
b11 w
b10000000000000000000100 L
b10000000000000000000100 Z
b1111111111111111111100 [
b10000000000000000000000 <
b10000000000000000000000 u
14
13
#6583228
04
03
#6624894
1;
b11111111111111111111111110010011 e
b10010011 f
b1000011110010011 d
b10001111000011110010011 .
b10001111000011110010011 =
1$"
0%
0?
b11000 '"
10
01
b11000 *
b1100000 /
b1100000 K
b1100000 #"
b1100100 G
1-
b0 w
b10001111000000001100000 `
b1100100 a
b1100000 r
14
13
#6666560
04
03
#6708226
b11111111111111111111111110000011 e
b10000011 f
b1010011110000011 d
0$"
0-
b1111010011110000011 .
b1111010011110000011 =
b1 w
b1111010011110000011 5
b1111010011110000011 ("
14
13
#6749892
04
03
#6791558
0;
b0 f
b0 d
b0 @
b1000000000 M
b10000000000000000000000 z
b0 .
b0 =
b10000000000000000000000 B
b100000000000000000000 '"
00
11
b100000000000000000000 *
b10000000000000000000000 [
b0 e
b1111 _
b100001101110 `
b10000000000000000000000 /
b10000000000000000000000 K
b10000000000000000000000 #"
b10000000000000000000000 Z
b0 \
b10000000000000000000000 L
0J
b0 C
b0 s
0W
1P
b1111010000000000000 ]
b0 h
b1111010000000000000 g
b0 D
b10 Y
b10 w
b1111010011110000011 t
14
13
#6833224
04
03
#6874890
1%
1?
b100000000000000000001000000000 M
b100000000000000000001 '"
b100000000000000000001 *
b10000000000000000000100 B
b10000000000000000000100 /
b10000000000000000000100 K
b10000000000000000000100 #"
b10000000000000000000100 z
b10000000000000000000100 A
b11 w
b10000000000000000000100 L
b10000000000000000000100 Z
b10000000000000000000100 [
b10000000000000000000100 <
b10000000000000000000100 u
14
13
#6916556
04
03
#6958222
0?
b1101000 G
1-
b100 w
b100001110010 `
b1101000 a
b1100100 r
14
13
#6999888
04
03
#7041554
1?
0-
b101 w
14
13
#7083220
04
03
#7124886
b1111010011110000011 @
1;
b10000011 f
b1010011110000011 d
b1111010011110000011 e
b1111010011110000011 .
b1111010011110000011 =
1$"
0%
b11001 '"
10
01
b11001 *
b1100100 /
b1100100 K
b1100100 #"
0?
1-
b0 w
14
13
#7166552
04
03
#7208218
b11111110111101000010010000100011 @
0;
b100011 f
b10010000100011 d
b11111110111101000010010000100011 e
0$"
0-
b11111110111101000010010000100011 .
b11111110111101000010010000100011 =
b1 w
b11111110111101000010010000100011 5
b11111110111101000010010000100011 ("
14
13
#7249884
04
03
